1 2591 
2 7227 3028 
2 7948 7813 
1 3202 
1 2736 
1 2573 
1 5982 
2 8890 180 
1 1855 
1 7110 
1 1880 
2 7716 1284 
1 2660 
3 2176 4390 7496 
1 1817 
2 8670 7025 
2 1135 9910 
2 2384 4646 
2 3647 766 
3 5480 8722 5159 
1 6544 
1 476 
2 7013 2939 
2 3321 8994 
1 492 
2 8773 1159 
3 3358 9999 6935 
1 1399 
2 7575 3288 
1 9954 
3 6377 6665 3749 
1 8303 
3 9483 1356 2815 
2 3936 6348 
3 2212 2502 181 
2 2346 6285 
3 8192 251 7375 
1 3341 
2 3708 7621 
2 563 2053 
2 3578 7061 
7 6252 1381 4361 9760 5812 165 4531 
1 1626 
1 2430 
1 7909 
3 364 1427 1594 
1 8253 
4 719 8306 8119 7105 
3 1178 3760 89 
2 2288 5821 
4 4679 5091 8345 391 
5 3696 4070 3252 1056 9058 
2 9252 7432 
4 9251 1751 7182 4841 
3 8184 7990 7992 
2 1778 4793 
1 5478 
4 1563 4420 9642 5434 
1 7147 
3 1208 6499 5646 
4 3614 3298 9146 3517 
1 7760 
4 5649 4138 8319 2564 
3 23 8726 295 
2 368 3207 
1 6591 
1 6960 
1 6090 
2 6912 5968 
3 6031 4011 2448 
2 7809 7641 
3 7109 5983 8433 
3 4301 6514 6993 
2 6403 3539 
2 873 8047 
3 311 9925 4417 
4 1803 2486 7146 1378 
1 7972 
1 3824 
2 7347 4868 
4 499 9750 8201 1446 
2 3147 4469 
3 1105 3381 2620 
3 2866 3887 2704 
2 3291 4325 
3 7684 4337 5775 
3 1246 1642 2853 
3 8553 722 1950 
2 4588 1009 
2 1973 8330 
3 3362 9740 644 
3 7108 5969 8304 
3 2015 4411 6834 
1 1140 
3 1061 6170 231 
2 7779 1998 
1 6610 
2 6238 7601 
1 5979 
1 1956 
4 4644 8605 4127 2862 
1 923 
1 9914 
1 641 
2 2541 5334 
3 1785 5669 8543 
3 3086 3633 1003 
3 8758 5441 3185 
4 7862 872 9048 7053 
4 9913 8088 6441 2134 
2 9449 6190 
4 233 6988 2698 7878 
3 8878 306 807 
3 6745 1844 8278 
2 5562 6143 
3 6744 5147 3737 
4 4352 3088 1087 1662 
3 4948 7325 7376 
3 2717 2177 8825 
2 9049 6063 
3 9579 486 7410 
4 7379 5444 1652 4374 
4 1194 1067 1118 8625 
3 768 5991 9530 
5 9489 18 6817 3559 8925 
2 8546 820 
5 4065 1670 5138 1705 7371 
3 6600 6470 5179 
4 384 8581 4140 8865 
2 1269 5059 
5 5914 2481 2876 1225 1301 
5 2944 7613 2593 4054 2130 
2 5245 3491 
3 4629 174 3755 
5 8245 9519 948 73 4308 
2 1776 5071 
2 1706 7673 
2 229 1327 
2 7891 7773 
4 5679 4736 8753 7855 
5 613 3516 6614 8202 8971 
2 9985 2445 
2 8290 9515 
4 6208 7506 3903 8838 
3 3507 1586 5020 
2 7113 437 
5 7239 8679 9076 6687 8163 
2 549 4887 
3 39 943 4530 
4 3145 6207 2902 7391 
3 3694 9569 1691 
4 5307 4006 2411 5749 
2 6913 5226 
4 9509 6616 7408 7904 
2 1421 835 
4 7483 1808 1367 9525 
5 4559 5325 592 8113 4983 
3 2308 3742 1699 
3 3508 9986 7733 
3 379 8139 5084 
1 1713 
2 8102 1339 
4 8895 4763 2070 6994 
4 1459 389 8885 2521 
2 9920 1555 
5 1736 8975 9257 702 2363 
1 4022 
2 4181 6080 
3 789 8968 5254 
4 4810 4774 6 7241 
5 388 6801 9609 6349 3586 
5 3163 2678 3702 7524 7042 
2 3693 8596 
2 1040 4471 
3 4419 9608 4600 
2 3557 2951 
3 1131 5664 2664 
2 7534 3111 
2 2343 7458 
2 3580 7206 
3 7662 3709 1088 
4 5950 5604 26 8611 
3 3312 5198 9739 
4 8815 0 5953 2090 
3 249 3388 562 
3 262 7899 9507 
4 594 8913 6311 7393 
2 584 3827 
4 6200 9418 8606 3322 
6 2693 3767 7218 7368 7476 980 
3 264 5294 5758 
4 2191 9732 2300 4812 
3 995 7242 6650 
3 2237 5811 6717 
2 9636 7522 
3 576 4320 5190 
2 7767 1213 
3 4435 8227 3638 
4 3635 1481 5683 5471 
2 6825 1190 
2 8950 9287 
2 3324 8046 
2 7519 750 
2 6541 8563 
2 2649 9360 
3 3809 7069 7751 
3 4191 5176 4649 
6 454 798 7854 1615 1579 2145 
4 4255 1376 5891 3897 
2 7119 2528 
3 3030 8967 7600 
2 605 6644 
5 1016 1411 3277 8923 8654 
2 6692 1344 
2 4058 6527 
2 6607 9723 
2 9600 321 
2 350 3620 
2 7088 2887 
3 6904 5296 1680 
2 5858 5886 
5 8661 9258 3957 8704 6761 
2 8073 4818 
4 9663 1849 7189 2840 
6 9702 9044 5813 3134 2202 9005 
2 5954 3861 
4 2851 4275 3492 4432 
4 8244 1821 8948 1878 
2 1478 5618 
2 6520 4241 
3 1560 2418 9520 
3 4084 7122 3870 
4 1682 438 7157 3286 
5 1959 9186 2463 3084 7509 
4 9735 4329 6911 7986 
3 3926 1659 1204 
5 8809 2359 5141 5877 3081 
3 9563 9459 1015 
5 3178 362 329 926 9915 
2 8348 2709 
3 5705 1936 9878 
2 9463 8727 
2 5377 4483 
3 6509 9714 1185 
2 5711 7482 
4 9541 8999 2155 6917 
3 7929 9927 3246 
3 2654 9451 6032 
2 9613 9359 
2 4405 5985 
3 4744 5742 8572 
4 318 1027 5883 7460 
2 7957 4027 
3 7844 1333 7623 
2 3890 8622 
3 4830 3225 1439 
4 7068 9372 9528 7713 
6 6581 7835 1289 8215 8718 4392 
5 8173 4838 6521 7744 6087 
4 457 6515 4580 7814 
2 3008 8730 
2 9804 5578 
4 6995 631 3611 4766 
2 5169 5975 
3 2269 2172 2822 
4 8946 1400 1542 5264 
5 8031 4412 4122 7450 2836 
4 7280 5404 2491 1086 
2 8189 4941 
4 4493 7453 9840 6291 
3 7997 2499 9599 
4 7771 4991 2032 5244 
1 3504 
3 7680 9021 3850 
2 6740 9377 
5 8048 9253 6830 8156 4563 
2 4005 9099 
5 6397 258 1633 6371 6524 
2 5343 6753 
3 4470 8397 7017 
4 5864 8982 3741 5248 
6 767 5919 2747 2858 4599 4640 
5 881 7075 8070 9756 4778 
4 3536 8061 5652 7093 
2 7152 3705 
2 3430 4557 
2 9090 8824 
4 5593 8788 4811 8818 
4 2825 8571 6365 1473 
5 4802 6129 4438 2337 3571 
2 7561 6517 
3 2615 9726 8633 
4 6480 5780 4476 8775 
2 81 218 
2 3311 2758 
2 4492 8778 
2 474 4796 
5 7501 3272 2677 9398 8377 
4 9897 1922 879 8666 
5 7971 1442 712 9184 4747 
2 8520 1000 
2 5828 7343 
4 3315 3161 31 5653 
3 8762 9770 7937 
2 2074 4949 
4 7753 9644 762 1107 
2 864 9824 
4 4950 2454 4753 5819 
2 3104 9803 
5 3337 7059 4900 1744 1507 
1 6477 
3 6622 8430 1293 
3 8780 5281 5461 
4 940 7784 2773 4987 
2 643 2669 
2 2298 2257 
2 819 1114 
2 9503 978 
5 2125 8340 7050 784 6355 
4 7275 4052 1663 8365 
2 3433 3367 
2 3265 8384 
2 7056 5376 
5 6226 6914 488 2376 1288 
2 5717 3560 
3 5344 2099 4177 
2 1426 3041 
1 6889 
2 6245 5513 
2 4475 7632 
5 3566 7284 9601 962 160 
4 6114 4500 2998 7036 
3 3055 7468 5067 
2 3655 7678 
2 97 2265 
3 3733 3688 1064 
3 4936 1322 9484 
5 9845 5553 9921 579 2816 
2 8251 9354 
4 9385 6463 8080 3762 
3 7176 2007 2625 
4 5561 432 1341 8453 
2 6724 7433 
4 1186 4317 6060 4865 
4 3689 4465 3848 5961 
5 129 1763 1285 7688 1645 
2 6965 7581 
2 9011 773 
2 3330 6518 
2 2896 5573 
2 1385 2096 
3 8276 5531 9472 
2 581 2983 
2 935 9693 
4 3091 6217 2487 3259 
4 5635 3389 9301 2509 
4 6124 4015 4281 5225 
3 7679 7655 5127 
3 3020 3503 3871 
2 5621 8000 
5 5556 3964 446 9648 9454 
4 9865 2806 685 8423 
2 1113 9868 
3 1216 464 2038 
2 622 5903 
2 1970 8402 
4 5910 8929 5412 9404 
4 1035 7720 1935 6246 
2 1177 7362 
4 9862 6015 4069 4931 
3 4573 7836 2251 
3 1882 831 4286 
4 7924 2812 6152 4095 
4 5570 548 4751 1408 
2 5597 6127 
2 5124 4321 
2 5348 1254 
2 8934 7467 
3 5776 3889 6136 
3 5842 3959 9677 
2 8230 9765 
2 7711 6686 
2 6340 7015 
2 332 1545 
3 4925 6322 7437 
3 9966 8949 6099 
5 8935 1021 5272 8441 2818 
2 9687 4604 
4 8473 4823 6465 2326 
3 1685 6583 8490 
3 609 8891 455 
2 5732 1022 
2 7037 1562 
3 507 9346 240 
5 4898 5589 5533 5895 3884 
4 9533 6158 4678 1207 
5 6564 8900 148 1452 6828 
2 8254 6018 
5 5072 2582 6845 6104 3643 
3 3439 8422 8364 
